NFL Receiving Data Analysis
…
data

## # A tibble: 19,027 x 16
##    Player Tm      Age Pos       G    GS   Tgt   Rec `Ctch%`   Yds yds_rec    TD
##    <chr>  <chr> <int> <chr> <int> <int> <dbl> <int> <chr>   <int>   <dbl> <int>
##  1 Micha~ NOR      26 WR       16    15   185   149 80.5%    1725    11.6     9
##  2 Chris~ CAR      23 RB       16    16   142   116 81.7%    1005     8.7     4
##  3 Keena~ LAC      27 WR       16    16   149   104 69.8%    1199    11.5     6
##  4 DeAnd~ HOU      27 WR       15    15   150   104 69.3%    1165    11.2     7
##  5 Julia~ NWE      33 WR       16    13   153   100 65.4%    1117    11.2     6
##  6 Julio~ ATL      30 WR       15    15   157    99 63.1%    1394    14.1     6
##  7 Allen~ CHI      26 WR       16    15   154    98 63.6%    1147    11.7     7
##  8 Travi~ KAN      30 TE       16    16   136    97 71.3%    1229    12.7     5
##  9 Coope~ LAR      26 WR       16    14   134    94 70.1%    1161    12.4    10
## 10 Austi~ LAC      24 rb       16     8   108    92 85.2%     993    10.8     8
## # ... with 19,017 more rows, and 4 more variables: `1D` <dbl>, rec_game <dbl>,
## #   yds_game <dbl>, year <int>

stats_by_year <- data %>% 
  group_by(year) %>% 
  summarise(total_yards = sum(Yds),
            total_rec = sum(Rec), 
            total_TDs = sum(TD),
            avg_yds_rec = total_yards / total_rec
            )

stats_by_year

## # A tibble: 50 x 5
##     year total_yards total_rec total_TDs avg_yds_rec
##    <int>       <int>     <int>     <int>       <dbl>
##  1  1970       65650      4981       426        13.2
##  2  1971       61808      4666       380        13.2
##  3  1972       59936      4523       394        13.3
##  4  1973       56889      4501       374        12.6
##  5  1974       62275      5031       376        12.4
##  6  1975       65698      5168       425        12.7
##  7  1976       66914      5246       425        12.8
##  8  1977       62908      4962       384        12.7
##  9  1978       78396      6192       462        12.7
## 10  1979       88873      6994       534        12.7
## # ... with 40 more rows
…
